%YAML 1.1
%TAG !u! tag:unity3d.com,2011:
--- !u!114 &11400000
MonoBehaviour:
  m_ObjectHideFlags: 0
  m_CorrespondingSourceObject: {fileID: 0}
  m_PrefabInstance: {fileID: 0}
  m_PrefabAsset: {fileID: 0}
  m_GameObject: {fileID: 0}
  m_Enabled: 1
  m_EditorHideFlags: 0
  m_Script: {fileID: 11500000, guid: 9e5fb215ceada1241bee2eaf17e94921, type: 3}
  m_Name: PlayerRacer
  m_EditorClassIdentifier: 
  offset: {x: 0, y: 2.5, z: 0}
  tiltAngle: {x: 0, y: 0, z: 0}
