%YAML 1.1
%TAG !u! tag:unity3d.com,2011:
--- !u!114 &11400000
MonoBehaviour:
  m_ObjectHideFlags: 0
  m_CorrespondingSourceObject: {fileID: 0}
  m_PrefabInstance: {fileID: 0}
  m_PrefabAsset: {fileID: 0}
  m_GameObject: {fileID: 0}
  m_Enabled: 1
  m_EditorHideFlags: 0
  m_Script: {fileID: 11500000, guid: 0e2036d8f2cad934da17b8f6f82ec9ed, type: 3}
  m_Name: HoverForce
  m_EditorClassIdentifier: 
  DeveloperDescription: 
  MinValue: 0
  MaxValue: 500
  Value: 0
  RangedValue: 1
